Open Circular Port Graph Examples · AlgebraicDynamics.jl
…
First, we will approximate the solution to the three city SIR model using Euler's method. The initial condition has 100 susceptible people in each city a single infected person in the first city. We show the infected populations in each city over time.

u0 = [100,1,0,100,0,0,100,0,0.0]

h = 0.01
nsteps = 100

threecity_approx = euler_approx(threecity, h)
traj = trajectory(threecity_approx, u0, [], nothing, nsteps)

map(traj) do u
    return (i1=u[2], i2=u[5], i3=u[8])
end |> pretty_table

┌─────────┬─────────────┬─────────────┐
│      i1 │          i2 │          i3 │
│ Float64 │     Float64 │     Float64 │
├─────────┼─────────────┼─────────────┤
│     1.0 │         0.0 │         0.0 │
│  1.3959 │      5.0e-5 │         0.0 │
│  1.9463 │  0.00013959 │      5.0e-9 │
│  2.7094 │ 0.000292169 │  2.09385e-8 │
│ 3.76334 │ 0.000543308 │  5.84449e-8 │
│ 5.21121 │  0.00094657 │  1.35914e-7 │
│ 7.18564 │  0.00158188 │   2.8438e-7 │
│ 9.85078 │  0.00256741 │  5.55153e-7 │
│ 13.3983 │  0.00407637 │  1.03168e-6 │
│ 18.0311 │  0.00636006 │  1.84776e-6 │
│ 23.9277 │   0.0097794 │  3.21529e-6 │
│ 31.1815 │   0.0148471 │  5.46617e-6 │
│ 39.7176 │   0.0222833 │  9.11493e-6 │
│ 49.2146 │   0.0330891 │  1.49519e-5 │
│ 59.0815 │   0.0486455 │  2.41802e-5 │
│    ⋮    │      ⋮      │      ⋮      │
└─────────┴─────────────┴─────────────┘
                        86 rows omitted
…
